M48
; DRILL file {KiCad (6.0.7)} date Sun Oct  9 16:19:23 2022
; FORMAT={-:-/ absolute / inch / decimal}
; #@! TF.CreationDate,2022-10-09T16:19:23-07:00
; #@! TF.GenerationSoftware,Kicad,Pcbnew,(6.0.7)
; #@! TF.FileFunction,Plated,1,2,PTH
FMAT,2
INCH
; #@! TA.AperFunction,Plated,PTH,ComponentDrill
T1C0.0319
; #@! TA.AperFunction,Plated,PTH,ComponentDrill
T2C0.0394
%
G90
G05
T1
X3.0Y-3.0
X3.0Y-3.1
X3.0Y-3.2
X3.0Y-3.3
X3.0Y-3.4
T2
X3.08Y-1.93
X3.08Y-2.03
X3.08Y-2.13
X3.08Y-2.23
X3.08Y-2.33
X3.08Y-2.43
X3.08Y-2.53
X3.08Y-2.63
T0
M30
