%TF.GenerationSoftware,KiCad,Pcbnew,(6.0.7)*%
%TF.CreationDate,2022-10-09T16:19:47-07:00*%
%TF.ProjectId,usb-c-pogo-adapter,7573622d-632d-4706-9f67-6f2d61646170,rev?*%
%TF.SameCoordinates,Original*%
%TF.FileFunction,Copper,L1,Top*%
%TF.FilePolarity,Positive*%
%FSLAX46Y46*%
G04 Gerber Fmt 4.6, Leading zero omitted, Abs format (unit mm)*
G04 Created by KiCad (PCBNEW (6.0.7)) date 2022-10-09 16:19:47*
%MOMM*%
%LPD*%
G01*
G04 APERTURE LIST*
%TA.AperFunction,ComponentPad*%
%ADD10R,1.700000X1.700000*%
%TD*%
%TA.AperFunction,ComponentPad*%
%ADD11O,1.700000X1.700000*%
%TD*%
%TA.AperFunction,ComponentPad*%
%ADD12R,1.316000X1.316000*%
%TD*%
%TA.AperFunction,ComponentPad*%
%ADD13C,1.316000*%
%TD*%
%TA.AperFunction,Conductor*%
%ADD14C,0.500000*%
%TD*%
G04 APERTURE END LIST*
D10*
%TO.P,J2,1,Pin_1*%
%TO.N,GND*%
X78232000Y-49022000D03*
D11*
%TO.P,J2,2,Pin_2*%
%TO.N,VBUS*%
X78232000Y-51562000D03*
%TO.P,J2,3,Pin_3*%
%TO.N,unconnected-(J2-Pad3)*%
X78232000Y-54102000D03*
%TO.P,J2,4,Pin_4*%
%TO.N,unconnected-(J2-Pad4)*%
X78232000Y-56642000D03*
%TO.P,J2,5,Pin_5*%
%TO.N,/DATA-*%
X78232000Y-59182000D03*
%TO.P,J2,6,Pin_6*%
%TO.N,/DATA+*%
X78232000Y-61722000D03*
%TO.P,J2,7,Pin_7*%
%TO.N,unconnected-(J2-Pad7)*%
X78232000Y-64262000D03*
%TO.P,J2,8,Pin_8*%
%TO.N,/ID*%
X78232000Y-66802000D03*
%TD*%
D12*
%TO.P,J1,1,1*%
%TO.N,VBUS*%
X76200000Y-86360000D03*
D13*
%TO.P,J1,2,2*%
%TO.N,/DATA-*%
X76200000Y-83820000D03*
%TO.P,J1,3,3*%
%TO.N,/DATA+*%
X76200000Y-81280000D03*
%TO.P,J1,4,4*%
%TO.N,/ID*%
X76200000Y-78740000D03*
%TO.P,J1,5,5*%
%TO.N,GND*%
X76200000Y-76200000D03*
%TD*%
D14*
%TO.N,/ID*%
X74930000Y-70104000D02*
X74930000Y-77470000D01*
X74930000Y-77470000D02*
X76200000Y-78740000D01*
X78232000Y-66802000D02*
X74930000Y-70104000D01*
%TO.N,/DATA+*%
X78232000Y-79248000D02*
X76200000Y-81280000D01*
X78232000Y-74463175D02*
X78232000Y-79248000D01*
X79756000Y-72939175D02*
X78232000Y-74463175D01*
X79756000Y-63246000D02*
X79756000Y-72939175D01*
X78232000Y-61722000D02*
X79756000Y-63246000D01*
%TO.N,/DATA-*%
X81499824Y-62449824D02*
X78232000Y-59182000D01*
X81499824Y-78520176D02*
X81499824Y-62449824D01*
X76200000Y-83820000D02*
X81499824Y-78520176D01*
%TO.N,VBUS*%
X82199824Y-80360176D02*
X82199824Y-55529824D01*
X82199824Y-55529824D02*
X78232000Y-51562000D01*
X76200000Y-86360000D02*
X82199824Y-80360176D01*
X76200000Y-87122000D02*
X76200000Y-86360000D01*
%TD*%
M02*
