%TF.GenerationSoftware,KiCad,Pcbnew,(6.0.7)*%
%TF.CreationDate,2022-10-20T10:41:03-07:00*%
%TF.ProjectId,usb-c-pogo-adapter,7573622d-632d-4706-9f67-6f2d61646170,rev?*%
%TF.SameCoordinates,Original*%
%TF.FileFunction,Legend,Top*%
%TF.FilePolarity,Positive*%
%FSLAX46Y46*%
G04 Gerber Fmt 4.6, Leading zero omitted, Abs format (unit mm)*
G04 Created by KiCad (PCBNEW (6.0.7)) date 2022-10-20 10:41:03*
%MOMM*%
%LPD*%
G01*
G04 APERTURE LIST*
%ADD10C,0.150000*%
G04 APERTURE END LIST*
D10*
X81986380Y-67785047D02*
X81510190Y-68118380D01*
X81986380Y-68356476D02*
X80986380Y-68356476D01*
X80986380Y-67975523D01*
X81034000Y-67880285D01*
X81081619Y-67832666D01*
X81176857Y-67785047D01*
X81319714Y-67785047D01*
X81414952Y-67832666D01*
X81462571Y-67880285D01*
X81510190Y-67975523D01*
X81510190Y-68356476D01*
X81986380Y-67356476D02*
X80986380Y-67356476D01*
X81700666Y-67023142D01*
X80986380Y-66689809D01*
X81986380Y-66689809D01*
X81081619Y-66261238D02*
X81034000Y-66213619D01*
X80986380Y-66118380D01*
X80986380Y-65880285D01*
X81034000Y-65785047D01*
X81081619Y-65737428D01*
X81176857Y-65689809D01*
X81272095Y-65689809D01*
X81414952Y-65737428D01*
X81986380Y-66308857D01*
X81986380Y-65689809D01*
X81319714Y-64499333D02*
X82319714Y-64499333D01*
X81367333Y-64499333D02*
X81319714Y-64404095D01*
X81319714Y-64213619D01*
X81367333Y-64118380D01*
X81414952Y-64070761D01*
X81510190Y-64023142D01*
X81795904Y-64023142D01*
X81891142Y-64070761D01*
X81938761Y-64118380D01*
X81986380Y-64213619D01*
X81986380Y-64404095D01*
X81938761Y-64499333D01*
X81986380Y-63451714D02*
X81938761Y-63546952D01*
X81891142Y-63594571D01*
X81795904Y-63642190D01*
X81510190Y-63642190D01*
X81414952Y-63594571D01*
X81367333Y-63546952D01*
X81319714Y-63451714D01*
X81319714Y-63308857D01*
X81367333Y-63213619D01*
X81414952Y-63166000D01*
X81510190Y-63118380D01*
X81795904Y-63118380D01*
X81891142Y-63166000D01*
X81938761Y-63213619D01*
X81986380Y-63308857D01*
X81986380Y-63451714D01*
X81319714Y-62261238D02*
X82129238Y-62261238D01*
X82224476Y-62308857D01*
X82272095Y-62356476D01*
X82319714Y-62451714D01*
X82319714Y-62594571D01*
X82272095Y-62689809D01*
X81938761Y-62261238D02*
X81986380Y-62356476D01*
X81986380Y-62546952D01*
X81938761Y-62642190D01*
X81891142Y-62689809D01*
X81795904Y-62737428D01*
X81510190Y-62737428D01*
X81414952Y-62689809D01*
X81367333Y-62642190D01*
X81319714Y-62546952D01*
X81319714Y-62356476D01*
X81367333Y-62261238D01*
X81986380Y-61642190D02*
X81938761Y-61737428D01*
X81891142Y-61785047D01*
X81795904Y-61832666D01*
X81510190Y-61832666D01*
X81414952Y-61785047D01*
X81367333Y-61737428D01*
X81319714Y-61642190D01*
X81319714Y-61499333D01*
X81367333Y-61404095D01*
X81414952Y-61356476D01*
X81510190Y-61308857D01*
X81795904Y-61308857D01*
X81891142Y-61356476D01*
X81938761Y-61404095D01*
X81986380Y-61499333D01*
X81986380Y-61642190D01*
X81319714Y-60261238D02*
X81319714Y-59880285D01*
X80986380Y-60118380D02*
X81843523Y-60118380D01*
X81938761Y-60070761D01*
X81986380Y-59975523D01*
X81986380Y-59880285D01*
X81986380Y-59404095D02*
X81938761Y-59499333D01*
X81891142Y-59546952D01*
X81795904Y-59594571D01*
X81510190Y-59594571D01*
X81414952Y-59546952D01*
X81367333Y-59499333D01*
X81319714Y-59404095D01*
X81319714Y-59261238D01*
X81367333Y-59166000D01*
X81414952Y-59118380D01*
X81510190Y-59070761D01*
X81795904Y-59070761D01*
X81891142Y-59118380D01*
X81938761Y-59166000D01*
X81986380Y-59261238D01*
X81986380Y-59404095D01*
X81700666Y-57927904D02*
X81700666Y-57451714D01*
X81986380Y-58023142D02*
X80986380Y-57689809D01*
X81986380Y-57356476D01*
X81986380Y-56594571D02*
X80986380Y-56594571D01*
X81938761Y-56594571D02*
X81986380Y-56689809D01*
X81986380Y-56880285D01*
X81938761Y-56975523D01*
X81891142Y-57023142D01*
X81795904Y-57070761D01*
X81510190Y-57070761D01*
X81414952Y-57023142D01*
X81367333Y-56975523D01*
X81319714Y-56880285D01*
X81319714Y-56689809D01*
X81367333Y-56594571D01*
X81986380Y-55689809D02*
X81462571Y-55689809D01*
X81367333Y-55737428D01*
X81319714Y-55832666D01*
X81319714Y-56023142D01*
X81367333Y-56118380D01*
X81938761Y-55689809D02*
X81986380Y-55785047D01*
X81986380Y-56023142D01*
X81938761Y-56118380D01*
X81843523Y-56166000D01*
X81748285Y-56166000D01*
X81653047Y-56118380D01*
X81605428Y-56023142D01*
X81605428Y-55785047D01*
X81557809Y-55689809D01*
X81319714Y-55356476D02*
X81319714Y-54975523D01*
X81986380Y-55213619D02*
X81129238Y-55213619D01*
X81034000Y-55166000D01*
X80986380Y-55070761D01*
X80986380Y-54975523D01*
X81986380Y-54642190D02*
X81319714Y-54642190D01*
X81510190Y-54642190D02*
X81414952Y-54594571D01*
X81367333Y-54546952D01*
X81319714Y-54451714D01*
X81319714Y-54356476D01*
X81319714Y-53594571D02*
X81986380Y-53594571D01*
X81319714Y-54023142D02*
X81843523Y-54023142D01*
X81938761Y-53975523D01*
X81986380Y-53880285D01*
X81986380Y-53737428D01*
X81938761Y-53642190D01*
X81891142Y-53594571D01*
X81986380Y-53118380D02*
X81319714Y-53118380D01*
X80986380Y-53118380D02*
X81034000Y-53166000D01*
X81081619Y-53118380D01*
X81034000Y-53070761D01*
X80986380Y-53118380D01*
X81081619Y-53118380D01*
X81319714Y-52785047D02*
X81319714Y-52404095D01*
X80986380Y-52642190D02*
X81843523Y-52642190D01*
X81938761Y-52594571D01*
X81986380Y-52499333D01*
X81986380Y-52404095D01*
X81319714Y-50880285D02*
X81986380Y-50880285D01*
X80938761Y-51118380D02*
X81653047Y-51356476D01*
X81653047Y-50737428D01*
X80986380Y-50166000D02*
X80986380Y-50070761D01*
X81034000Y-49975523D01*
X81081619Y-49927904D01*
X81176857Y-49880285D01*
X81367333Y-49832666D01*
X81605428Y-49832666D01*
X81795904Y-49880285D01*
X81891142Y-49927904D01*
X81938761Y-49975523D01*
X81986380Y-50070761D01*
X81986380Y-50166000D01*
X81938761Y-50261238D01*
X81891142Y-50308857D01*
X81795904Y-50356476D01*
X81605428Y-50404095D01*
X81367333Y-50404095D01*
X81176857Y-50356476D01*
X81081619Y-50308857D01*
X81034000Y-50261238D01*
X80986380Y-50166000D01*
X81986380Y-49356476D02*
X81986380Y-49166000D01*
X81938761Y-49070761D01*
X81891142Y-49023142D01*
X81748285Y-48927904D01*
X81557809Y-48880285D01*
X81176857Y-48880285D01*
X81081619Y-48927904D01*
X81034000Y-48975523D01*
X80986380Y-49070761D01*
X80986380Y-49261238D01*
X81034000Y-49356476D01*
X81081619Y-49404095D01*
X81176857Y-49451714D01*
X81414952Y-49451714D01*
X81510190Y-49404095D01*
X81557809Y-49356476D01*
X81605428Y-49261238D01*
X81605428Y-49070761D01*
X81557809Y-48975523D01*
X81510190Y-48927904D01*
X81414952Y-48880285D01*
X80986380Y-48261238D02*
X80986380Y-48166000D01*
X81034000Y-48070761D01*
X81081619Y-48023142D01*
X81176857Y-47975523D01*
X81367333Y-47927904D01*
X81605428Y-47927904D01*
X81795904Y-47975523D01*
X81891142Y-48023142D01*
X81938761Y-48070761D01*
X81986380Y-48166000D01*
X81986380Y-48261238D01*
X81938761Y-48356476D01*
X81891142Y-48404095D01*
X81795904Y-48451714D01*
X81605428Y-48499333D01*
X81367333Y-48499333D01*
X81176857Y-48451714D01*
X81081619Y-48404095D01*
X81034000Y-48356476D01*
X80986380Y-48261238D01*
M02*
